<?xml version="1.0" standalone="no"?>
<!DOCTYPE svg PUBLIC "-//W3C//DTD SVG 1.1//EN" "http://www.w3.org/Graphics/SVG/1.1/DTD/svg11.dtd">
<svg xmlns="http://www.w3.org/2000/svg">
<metadata>Copyright (C) 2014 by original authors @ fontello.com</metadata>
<defs>
<font id="fontello" horiz-adv-x="1000" >
<font-face font-family="fontello" font-weight="400" font-stretch="normal" units-per-em="1000" ascent="850" descent="-150" />
<missing-glyph horiz-adv-x="1000" />
<glyph glyph-name="arrow" unicode="&#xe848;" d="m517 850c-276 0-500-224-500-500s224-500 500-500s500 224 500 500s-224 500-500 500z m0-989c-269 0-489 220-489 489c0 269 220 489 489 489c270 0 489-220 489-489c0-269-219-489-489-489z m-19 783l215-294l-215-294h-108l215 294l-215 294h108z" horiz-adv-x="1011" />
<glyph glyph-name="youtube-2" unicode="&#xe877;" d="m807 739v-313h-64v35q-37-39-74-39q-45 0-45 56v261h64v-240q0-21 17-21t38 24v237h64z m-237-73v-162q0-42-25-64t-68-22q-41 0-66 24t-26 63v162q0 39 28 60t67 20q38 0 64-22t26-59z m-65-167v171q0 10-9 17t-19 6t-18-6t-8-17v-171q0-26 26-26q28 0 28 26z m-190 351h73l-55-165q-4-12-10-27t-10-28t-8-28v-176h-72v168q-2 12-29 85l-57 171h73l46-169h5z m611-739q0-49-6-145q-4-50-38-80t-85-31q-99-5-297-5q-199 0-297 5q-50 2-84 31t-39 80q-6 96-6 145t6 145q4 50 39 80t84 31q98 5 297 5t297-5q50-2 85-31t38-80q6-96 6-145z m-71-91v19h-53q0-2 1-13t0-15t-3-12t-7-10t-14-3q-10 0-15 6t-6 12t-1 17v48h98v64q0 35-19 55t-54 20q-34 0-56-20t-23-55v-113q0-36 20-58t55-21q77 0 77 79z m-191-19v140q0 63-50 63q-25 0-46-23v110h-52v-343h52v20q22-23 49-23q47 0 47 56z m-250-53h51v253h-51v-192q-17-19-31-19q-13 0-13 17v194h-52v-213q0-44 36-44q30 0 60 32v-28z m-156 293h61v50h-179v-50h60v-293h58v293z m544-105v-28h-45v28q0 27 23 27q22 0 22-27z m-191 3v-133q0-21-18-21q-14 0-25 11v158q10 10 22 10q21 0 21-25z" horiz-adv-x="1000" />
<glyph glyph-name="bookforsale-01" unicode="&#xe879;" d="m547 840c-29 16-69 13-118-9c-50-22-85-48-105-79c-10-15-14-33-14-54v-546c-17 25-30 48-38 79c-1 5-3 11-4 16c-6 28-22 64-53 70l6 66l-144 147l-77-76l139-142l75 0l0 0c28-6 44-40 49-66c2-6 3-11 4-16c9-35 23-59 43-87v-2l468-292l88 49v542l-480 276c15 19 34 35 59 48c25 13 47 16 67 10l430-230v-604l88 48v604l-483 248z" horiz-adv-x="1029" />
<glyph glyph-name="chrome" unicode="&#xe847;" d="m498 850c-147-1-291-67-387-186l154-237c39 111 150 182 267 170l414-22c-42 84-108 157-196 208c-79 46-166 67-252 67z m-416-226c-52-79-82-173-82-274c0-250 183-457 423-494l128 252c-116-22-233 39-281 146l-188 370z m885-94l-282-15c76-89 82-221 13-317l-226-347c94-6 190 15 278 66c216 125 304 387 217 613z m-467-11c-93 0-169-76-169-169s76-169 169-169s169 76 169 169s-76 169-169 169z" horiz-adv-x="1000" />
<glyph glyph-name="glass" unicode="&#xe81f;" d="m948 746q0-19-24-43l-353-353v-429h179q15 0 25-10t11-25t-11-25t-25-11h-500q-14 0-25 11t-11 25t11 25t25 10h179v429l-353 353q-24 24-24 43q0 13 10 21t21 9t24 3h786q13 0 24-3t21-9t10-21z" horiz-adv-x="1000" />
<glyph glyph-name="music" unicode="&#xe822;" d="m857 725v-625q0-28-19-50t-48-33t-58-18t-53-6t-54 6t-58 18t-48 33t-19 50t19 50t48 33t58 18t54 6q58 0 107-22v300l-429-132v-396q0-28-19-50t-48-33t-58-18t-53-6t-54 6t-58 18t-48 33t-19 50t19 50t48 34t58 17t54 6q58 0 107-21v539q0 17 10 32t28 19l464 143q7 3 16 3q22 0 38-16t15-38z" horiz-adv-x="857.1" />
<glyph glyph-name="search" unicode="&#xe829;" d="m643 386q0 103-74 176t-176 74t-177-74t-73-176t73-177t177-73t176 73t74 177z m286-465q0-29-22-50t-50-21q-30 0-50 21l-191 191q-100-69-223-69q-80 0-153 31t-125 84t-84 125t-31 153t31 152t84 126t125 84t153 31t152-31t126-84t84-126t31-152q0-123-69-223l191-191q21-21 21-51z" horiz-adv-x="928.6" />
<glyph glyph-name="mail" unicode="&#xe821;" d="m929 11v428q-18-20-39-37q-149-114-238-188q-28-24-46-38t-48-27t-57-13h-2q-26 0-57 13t-48 27t-46 38q-88 74-238 188q-21 17-39 37v-428q0-8 6-13t12-5h822q7 0 12 5t6 13z m0 586v14t-1 7t-1 7t-3 5t-5 4t-8 2h-822q-7 0-12-6t-6-12q0-94 82-159q108-85 224-177q4-2 20-16t25-21t25-18t28-15t24-5h2q11 0 24 5t28 15t25 18t25 21t20 16q116 92 224 177q30 24 56 65t26 73z m71 21v-607q0-37-26-63t-63-27h-822q-36 0-63 27t-26 63v607q0 37 26 63t63 26h822q37 0 63-26t26-63z" horiz-adv-x="1000" />
<glyph glyph-name="mail-alt" unicode="&#xe820;" d="m1000 454v-443q0-37-26-63t-63-27h-822q-36 0-63 27t-26 63v443q25-28 56-49q202-137 278-192q32-24 51-37t53-27t61-13h2q28 0 61 13t53 27t51 37q95 68 278 192q32 22 56 49z m0 164q0-44-27-84t-68-69q-210-146-262-181q-5-4-23-17t-30-22t-29-18t-33-15t-27-5h-2q-12 0-27 5t-33 15t-29 18t-30 22t-23 17q-51 35-147 101t-114 80q-35 23-65 64t-31 77q0 43 23 72t66 29h822q36 0 62-26t27-63z" horiz-adv-x="1000" />
<glyph glyph-name="heart-empty" unicode="&#xe82f;" d="m929 517q0 46-12 80t-31 55t-46 33t-52 18t-55 4t-62-14t-62-36t-48-40t-34-34q-10-13-27-13t-27 13q-14 15-34 34t-48 40t-62 36t-62 14t-55-4t-52-18t-46-33t-31-55t-12-80q0-93 105-198l324-312l324 312q105 105 105 198z m71 0q0-123-128-251l-347-335q-10-10-25-10t-25 10l-348 336q-5 5-15 15t-31 36t-38 55t-30 67t-13 77q0 123 71 192t196 70q34 0 70-12t67-33t54-38t42-38q20 20 42 38t54 38t67 33t70 12q125 0 196-70t71-192z" horiz-adv-x="1000" />
<glyph glyph-name="star" unicode="&#xe87a;" d="m929 489q0-12-15-27l-203-197l48-279q1-4 1-12q0-11-6-19t-17-9q-10 0-22 7l-251 132l-250-132q-13-7-23-7q-11 0-17 9t-6 19q0 4 1 12l48 279l-203 197q-14 15-14 27q0 21 31 26l280 40l126 254q11 23 27 23t28-23l125-254l280-40q32-5 32-26z" horiz-adv-x="928.6" />
<glyph glyph-name="users" unicode="&#xe81e;" d="m331 350q-90-3-148-71h-75q-45 0-77 22t-31 66q0 197 69 197q4 0 25-11t54-24t66-12q38 0 75 13q-3-21-3-37q0-78 45-143z m598-356q0-66-41-105t-108-39h-488q-68 0-108 39t-41 105q0 30 2 58t8 61t14 61t24 54t35 45t48 30t62 11q6 0 24-12t41-26t59-27t76-12t75 12t60 27t41 26t23 12q35 0 63-11t47-30t35-45t24-54t15-61t8-61t2-58z m-572 713q0-59-42-101t-101-42t-101 42t-42 101t42 101t101 42t101-42t42-101z m393-214q0-89-63-152t-151-62t-152 62t-63 152t63 151t152 63t151-63t63-151z m321-126q0-43-31-66t-77-22h-75q-57 68-147 71q45 65 45 143q0 16-3 37q37-13 74-13q33 0 67 12t54 24t24 11q69 0 69-197z m-71 340q0-59-42-101t-101-42t-101 42t-42 101t42 101t101 42t101-42t42-101z" horiz-adv-x="1071.4" />
<glyph glyph-name="th-large" unicode="&#xe827;" d="m429 279v-215q0-29-22-50t-50-21h-286q-29 0-50 21t-21 50v215q0 29 21 50t50 21h286q29 0 50-21t22-50z m0 428v-214q0-29-22-50t-50-22h-286q-29 0-50 22t-21 50v214q0 29 21 50t50 22h286q29 0 50-22t22-50z m500-428v-215q0-29-22-50t-50-21h-286q-29 0-50 21t-21 50v215q0 29 21 50t50 21h286q29 0 50-21t22-50z m0 428v-214q0-29-22-50t-50-22h-286q-29 0-50 22t-21 50v214q0 29 21 50t50 22h286q29 0 50-22t22-50z" horiz-adv-x="928.6" />
<glyph glyph-name="th" unicode="&#xe82b;" d="m286 154v-108q0-22-16-37t-38-16h-178q-23 0-38 16t-16 37v108q0 22 16 38t38 15h178q22 0 38-15t16-38z m0 285v-107q0-22-16-38t-38-15h-178q-23 0-38 15t-16 38v107q0 23 16 38t38 16h178q22 0 38-16t16-38z m357-285v-108q0-22-16-37t-38-16h-178q-23 0-38 16t-16 37v108q0 22 16 38t38 15h178q23 0 38-15t16-38z m-357 571v-107q0-22-16-38t-38-16h-178q-23 0-38 16t-16 38v107q0 22 16 38t38 16h178q22 0 38-16t16-38z m357-286v-107q0-22-16-38t-38-15h-178q-23 0-38 15t-16 38v107q0 23 16 38t38 16h178q23 0 38-16t16-38z m357-285v-108q0-22-16-37t-38-16h-178q-22 0-38 16t-16 37v108q0 22 16 38t38 15h178q23 0 38-15t16-38z m-357 571v-107q0-22-16-38t-38-16h-178q-23 0-38 16t-16 38v107q0 22 16 38t38 16h178q23 0 38-16t16-38z m357-286v-107q0-22-16-38t-38-15h-178q-22 0-38 15t-16 38v107q0 23 16 38t38 16h178q23 0 38-16t16-38z m0 286v-107q0-22-16-38t-38-16h-178q-22 0-38 16t-16 38v107q0 22 16 38t38 16h178q23 0 38-16t16-38z" horiz-adv-x="1000" />
<glyph glyph-name="ok" unicode="&#xe82a;" d="m932 534q0-22-15-38l-404-404l-76-76q-16-15-38-15t-38 15l-76 76l-202 202q-15 16-15 38t15 38l76 76q16 16 38 16t38-16l164-165l366 367q16 16 38 16t38-16l76-76q15-16 15-38z" horiz-adv-x="1000" />
<glyph glyph-name="ok-squared" unicode="&#xe82d;" d="m382 125l343 343q10 10 10 25t-10 25l-57 57q-11 10-25 10t-25-10l-261-261l-118 118q-10 11-25 11t-25-11l-57-57q-10-11-10-25t10-25l200-200q11-11 25-11t25 11z m475 493v-536q0-66-47-113t-114-48h-535q-67 0-114 48t-47 113v536q0 66 47 113t114 48h535q67 0 114-48t47-113z" horiz-adv-x="857.1" />
<glyph glyph-name="cancel-circled" unicode="&#xe82c;" d="m641 224q0 14-10 25l-101 101l101 101q10 11 10 25q0 15-10 26l-51 50q-10 11-25 11q-15 0-25-11l-101-101l-101 101q-11 11-26 11q-15 0-25-11l-50-50q-11-11-11-26q0-14 11-25l101-101l-101-101q-11-11-11-25q0-15 11-26l50-50q10-11 25-11q15 0 26 11l101 101l101-101q10-11 25-11q15 0 25 11l51 50q10 11 10 26z m216 126q0-117-57-215t-156-156t-215-58t-216 58t-155 156t-58 215t58 215t155 156t216 58t215-58t156-156t57-215z" horiz-adv-x="857.1" />
<glyph glyph-name="plus" unicode="&#xe82e;" d="m786 439v-107q0-22-16-38t-38-15h-232v-233q0-22-16-37t-38-16h-107q-22 0-38 16t-15 37v233h-232q-23 0-38 15t-16 38v107q0 23 16 38t38 16h232v232q0 22 15 38t38 16h107q23 0 38-16t16-38v-232h232q22 0 38-16t16-38z" horiz-adv-x="785.7" />
<glyph glyph-name="upload" unicode="&#xe800;" d="m714 29q0 14-10 25t-25 10t-26-10t-10-25t10-26t26-10t25 10t10 26z m143 0q0 14-10 25t-26 10t-25-10t-10-25t10-26t25-10t26 10t10 26z m72 125v-179q0-22-16-38t-38-16h-821q-23 0-38 16t-16 38v179q0 22 16 38t38 15h238q12-31 39-51t62-20h143q34 0 61 20t40 51h238q22 0 38-15t16-38z m-182 361q-9-22-33-22h-143v-250q0-15-10-25t-25-11h-143q-15 0-25 11t-11 25v250h-143q-23 0-33 22q-9 22 8 39l250 250q10 10 25 10t25-10l250-250q18-17 8-39z" horiz-adv-x="928.6" />
<glyph glyph-name="keyboard" unicode="&#xe80d;" d="m214 198v-53q0-9-9-9h-53q-9 0-9 9v53q0 9 9 9h53q9 0 9-9z m72 143v-53q0-9-9-9h-125q-9 0-9 9v53q0 9 9 9h125q9 0 9-9z m-72 143v-54q0-9-9-9h-53q-9 0-9 9v54q0 9 9 9h53q9 0 9-9z m572-286v-53q0-9-9-9h-482q-9 0-9 9v53q0 9 9 9h482q9 0 9-9z m-357 143v-53q0-9-9-9h-54q-9 0-9 9v53q0 9 9 9h54q9 0 9-9z m-72 143v-54q0-9-9-9h-53q-9 0-9 9v54q0 9 9 9h53q9 0 9-9z m214-143v-53q0-9-8-9h-54q-9 0-9 9v53q0 9 9 9h54q8 0 8-9z m-71 143v-54q0-9-9-9h-53q-9 0-9 9v54q0 9 9 9h53q9 0 9-9z m214-143v-53q0-9-9-9h-53q-9 0-9 9v53q0 9 9 9h53q9 0 9-9z m215-143v-53q0-9-9-9h-54q-9 0-9 9v53q0 9 9 9h54q9 0 9-9z m-286 286v-54q0-9-9-9h-54q-9 0-9 9v54q0 9 9 9h54q9 0 9-9z m143 0v-54q0-9-9-9h-54q-9 0-9 9v54q0 9 9 9h54q9 0 9-9z m143 0v-196q0-9-9-9h-125q-9 0-9 9v53q0 9 9 9h62v134q0 9 9 9h54q9 0 9-9z m71-420v500h-929v-500h929z m71 500v-500q0-29-21-50t-50-21h-929q-29 0-50 21t-21 50v500q0 30 21 51t50 21h929q30 0 50-21t21-51z" horiz-adv-x="1071.4" />
<glyph glyph-name="comment" unicode="&#xe830;" d="m1000 350q0-97-67-179t-182-130t-251-48q-39 0-81 4q-110-97-257-135q-27-8-63-12q-10-1-17 5t-10 16v1q-2 2 0 6t1 6t2 5l4 5t4 5t4 5q4 5 17 19t20 22t17 22t18 28t15 33t15 42q-88 50-138 123t-51 157q0 73 40 139t106 114t160 76t194 28q136 0 251-48t182-130t67-179z" horiz-adv-x="1000" />
<glyph glyph-name="chat" unicode="&#xe831;" d="m786 421q0-77-53-143t-143-104t-197-38q-48 0-98 9q-70-49-155-72q-21-5-48-9h-2q-6 0-12 5t-6 12q-1 1-1 3t1 4t1 3l1 3t2 3t2 3t3 3t2 2q3 3 13 14t15 16t12 17t14 21t11 25q-69 40-108 98t-40 125q0 78 53 144t143 104t197 38t197-38t143-104t53-144z m214-142q0-67-40-126t-108-98q5-14 11-25t14-21t13-16t14-17t13-14q0 0 2-2t3-3t2-3t2-3l1-3t1-3t1-4t-1-3q-2-8-7-13t-13-4q-27 4-48 9q-85 23-155 72q-50-9-98-9q-151 0-263 74q32-3 49-3q90 0 172 25t148 72q69 52 107 119t37 141q0 43-13 85q72-39 114-99t42-128z" horiz-adv-x="1000" />
<glyph glyph-name="menu-2" unicode="&#xe87d;" d="m857 100v-71q0-15-10-25t-26-11h-785q-15 0-25 11t-11 25v71q0 15 11 25t25 11h785q15 0 26-11t10-25z m0 286v-72q0-14-10-25t-26-10h-785q-15 0-25 10t-11 25v72q0 14 11 25t25 10h785q15 0 26-10t10-25z m0 285v-71q0-15-10-25t-26-11h-785q-15 0-25 11t-11 25v71q0 15 11 26t25 10h785q15 0 26-10t10-26z" horiz-adv-x="857.1" />
<glyph glyph-name="cog-1" unicode="&#xe80f;" d="m571 350q0 59-41 101t-101 42t-101-42t-42-101t42-101t101-42t101 42t41 101z m286 61v-124q0-7-4-13t-11-7l-104-16q-10-30-21-51q19-27 59-77q6-6 6-13t-5-13q-15-21-55-61t-53-39q-7 0-14 5l-77 60q-25-13-51-21q-9-76-16-104q-4-16-20-16h-124q-8 0-14 5t-6 12l-16 103q-27 9-50 21l-79-60q-6-5-14-5q-8 0-14 6q-70 64-92 94q-4 5-4 13q0 6 5 12q8 12 28 37t30 40q-15 28-23 55l-102 15q-7 1-11 7t-5 13v124q0 7 5 13t10 7l104 16q8 25 22 51q-23 32-60 77q-6 7-6 14q0 5 5 12q15 20 55 60t53 40q7 0 15-5l77-60q24 13 50 21q9 76 17 104q3 15 20 15h124q7 0 13-4t7-12l15-103q28-9 50-21l80 60q5 5 13 5q7 0 14-5q72-67 92-95q4-5 4-13q0-6-4-12q-9-12-29-38t-30-39q14-28 23-55l102-15q7-1 12-7t4-13z" horiz-adv-x="857.1" />
<glyph glyph-name="cog-alt" unicode="&#xe80e;" d="m500 350q0 59-42 101t-101 42t-101-42t-42-101t42-101t101-42t101 42t42 101z m429-286q0 29-22 51t-50 21t-50-21t-21-51q0-29 21-50t50-21t51 21t21 50z m0 572q0 29-22 50t-50 21t-50-21t-21-50q0-30 21-51t50-21t51 21t21 51z m-215-235v-103q0-6-4-11t-9-6l-86-14q-6-19-18-42q19-27 50-64q4-6 4-11q0-7-4-11q-13-17-46-50t-44-33q-6 0-11 4l-64 50q-21-11-43-17q-6-60-13-87q-4-13-17-13h-104q-6 0-11 4t-5 10l-13 85q-19 6-42 18l-66-50q-4-4-11-4q-6 0-12 4q-80 75-80 90q0 5 4 10q5 8 23 30t26 34q-13 24-20 46l-85 13q-5 1-9 5t-4 11v103q0 6 4 11t9 6l86 14q7 19 18 42q-19 27-50 64q-4 6-4 11q0 7 4 11q12 17 46 50t44 33q6 0 12-4l64-50q19 10 43 18q6 60 13 86q3 13 16 13h104q6 0 11-4t6-10l13-85q19-6 41-17l66 49q5 4 11 4q7 0 12-4q81-75 81-90q0-5-4-10q-7-9-24-30t-25-34q13-27 19-46l85-12q5-2 9-6t4-11z m357-298v-78q0-9-83-17q-6-15-16-29q28-63 28-77q0-2-2-4q-68-40-69-40q-5 0-26 27t-29 37q-11-1-17-1t-17 1q-7-11-29-37t-25-27q-1 0-69 40q-3 2-3 4q0 14 29 77q-10 14-17 29q-83 8-83 17v78q0 9 83 18q7 16 17 29q-29 63-29 77q0 2 3 4q2 1 19 11t33 19t17 9q4 0 25-26t29-38q12 1 17 1t17-1q28 40 51 63l4 1q2 0 69-39q2-2 2-4q0-14-28-77q9-13 16-29q83-9 83-18z m0 572v-78q0-9-83-18q-6-15-16-29q28-63 28-77q0-2-2-4q-68-39-69-39q-5 0-26 26t-29 38q-11-1-17-1t-17 1q-7-12-29-38t-25-26q-1 0-69 39q-3 2-3 4q0 14 29 77q-10 14-17 29q-83 9-83 18v78q0 9 83 17q7 16 17 29q-29 63-29 77q0 2 3 4q2 1 19 11t33 19t17 9q4 0 25-26t29-38q12 2 17 2t17-2q28 40 51 63l4 1q2 0 69-39q2-2 2-4q0-14-28-77q9-13 16-29q83-8 83-17z" horiz-adv-x="1071.4" />
<glyph glyph-name="down-dir" unicode="&#xe810;" d="m571 457q0-14-10-25l-250-250q-11-11-25-11t-25 11l-250 250q-11 11-11 25t11 25t25 11h500q14 0 25-11t10-25z" horiz-adv-x="571.4" />
<glyph glyph-name="play" unicode="&#xe87e;" d="m772 333l-741-412q-13-7-22-2t-9 20v822q0 14 9 20t22-2l741-412q13-7 13-17t-13-17z" horiz-adv-x="785.7" />
<glyph glyph-name="play-circled" unicode="&#xe87f;" d="m429 779q116 0 215-58t156-156t57-215t-57-215t-156-156t-215-58t-216 58t-155 156t-58 215t58 215t155 156t216 58z m214-460q18 10 18 31t-18 31l-304 178q-17 11-35 1q-18-11-18-31v-358q0-20 18-31q9-4 17-4q10 0 18 5z" horiz-adv-x="857.1" />
<glyph glyph-name="play-circled2" unicode="&#xe880;" d="m661 350q0-21-18-31l-304-178q-8-5-18-5q-8 0-17 4q-18 11-18 31v358q0 20 18 31q18 10 35-1l304-178q18-10 18-31z m71 0q0 83-41 152t-110 111t-152 41t-153-41t-110-111t-41-152t41-152t110-111t153-41t152 41t110 111t41 152z m125 0q0-117-57-215t-156-156t-215-58t-216 58t-155 156t-58 215t58 215t155 156t216 58t215-58t156-156t57-215z" horiz-adv-x="857.1" />
<glyph glyph-name="stop" unicode="&#xe881;" d="m857 743v-786q0-14-10-25t-26-11h-785q-15 0-25 11t-11 25v786q0 14 11 25t25 11h785q15 0 26-11t10-25z" horiz-adv-x="857.1" />
<glyph glyph-name="pause" unicode="&#xe882;" d="m857 743v-786q0-14-10-25t-26-11h-285q-15 0-25 11t-11 25v786q0 14 11 25t25 11h285q15 0 26-11t10-25z m-500 0v-786q0-14-10-25t-26-11h-285q-15 0-25 11t-11 25v786q0 14 11 25t25 11h285q15 0 26-11t10-25z" horiz-adv-x="857.1" />
<glyph glyph-name="desktop" unicode="&#xe80c;" d="m1000 296v465q0 7-5 12t-13 6h-893q-7 0-12-6t-6-12v-465q0-7 6-12t12-5h893q7 0 13 5t5 12z m71 465v-607q0-37-26-63t-63-27h-303q0-20 9-43t17-40t9-24q0-14-10-25t-25-11h-286q-15 0-25 11t-11 25q0 8 9 25t18 39t9 43h-304q-36 0-63 27t-26 63v607q0 37 26 63t63 26h893q37 0 63-26t26-63z" horiz-adv-x="1071.4" />
<glyph glyph-name="laptop" unicode="&#xe809;" d="m232 136q-37 0-63 26t-26 63v393q0 37 26 63t63 26h607q37 0 63-26t27-63v-393q0-37-27-63t-63-26h-607z m-18 482v-393q0-7 6-13t12-5h607q8 0 13 5t5 13v393q0 7-5 12t-13 6h-607q-7 0-12-6t-6-12z m768-518h89v-54q0-22-26-37t-63-16h-893q-36 0-63 16t-26 37v54h982z m-402-54q9 0 9 9t-9 9h-89q-9 0-9-9t9-9h89z" horiz-adv-x="1071.4" />
<glyph glyph-name="tablet" unicode="&#xe80a;" d="m357 64q0 15-10 25t-26 11t-25-11t-10-25t10-25t25-10t26 10t10 25z m214 90v535q0 8-5 13t-12 5h-465q-7 0-12-5t-6-13v-535q0-8 6-13t12-5h465q7 0 12 5t5 13z m72 535v-607q0-37-26-63t-63-26h-465q-36 0-63 26t-26 63v607q0 37 26 63t63 27h465q36 0 63-27t26-63z" horiz-adv-x="642.9" />
<glyph glyph-name="mobile" unicode="&#xe80b;" d="m259 64q0 19-13 32t-32 13t-31-13t-13-32t13-31t31-13t32 13t13 31z m116 90v392q0 8-5 13t-13 5h-286q-7 0-12-5t-5-13v-392q0-8 5-13t12-5h286q7 0 13 5t5 13z m-107 473q0 9-9 9h-89q-9 0-9-9t9-9h89q9 0 9 9z m161 9v-572q0-29-22-50t-50-21h-286q-29 0-50 21t-21 50v572q0 29 21 50t50 21h286q29 0 50-21t22-50z" horiz-adv-x="428.6" />
<glyph glyph-name="briefcase" unicode="&#xe81d;" d="m357 707h286v72h-286v-72z m643-357v-268q0-37-26-63t-63-26h-822q-36 0-63 26t-26 63v268h375v-89q0-15 11-25t25-11h178q15 0 25 11t11 25v89h375z m-429 0v-71h-142v71h142z m429 268v-215h-1000v215q0 37 26 63t63 26h197v89q0 23 15 38t38 16h322q22 0 38-16t15-38v-89h197q37 0 63-26t26-63z" horiz-adv-x="1000" />
<glyph glyph-name="megaphone" unicode="&#xe81c;" d="m929 493q29 0 50-21t21-51t-21-50t-50-21v-214q0-29-22-50t-50-22q-233 194-453 212q-32-10-51-36t-17-57t22-51q-11-19-13-37t4-32t18-31t27-28t35-28q-17-32-63-46t-94-7t-73 31q-4 13-17 49t-18 53t-12 50t-9 56t2 55t12 62h-68q-36 0-63 26t-26 63v107q0 37 26 63t63 26h268q243 0 500 215q29 0 50-22t22-50v-214z m-72-337v532q-220-168-428-191v-151q210-23 428-190z" horiz-adv-x="1000" />
<glyph glyph-name="coffee" unicode="&#xe885;" d="m929 493q0 45-32 76t-76 31h-35v-214h35q45 0 76 31t32 76z m-929-429h1000q0-59-42-101t-101-42h-714q-59 0-101 42t-42 101z m1036 429q0-89-63-152t-152-62h-35v-18q0-52-37-88t-88-37h-393q-51 0-88 37t-37 88v410q0 15 11 26t25 10h642q89 0 152-63t63-151z" horiz-adv-x="1071.4" />
<glyph glyph-name="facebook-3" unicode="&#xe850;" d="m285 540h144l-17-159h-127v-460h-190v460h-95v159h95v95q0 102 48 154t158 52h126v-158h-79q-22 0-35-4t-19-13t-7-19t-2-28v-79z" horiz-adv-x="428.6" />
<glyph glyph-name="facebook-squared-1" unicode="&#xe84f;" d="m729 338l13 122h-110v61q0 27 8 38t40 11h62v122h-98q-85 0-122-40t-36-119v-73h-74v-122h74v-355h146v355h97z m128 280v-536q0-66-47-113t-114-48h-535q-67 0-114 48t-47 113v536q0 66 47 113t114 48h535q67 0 114-48t47-113z" horiz-adv-x="857.1" />
<glyph glyph-name="flickr-1" unicode="&#xe868;" d="m696 779q67 0 114-48t47-113v-536q0-66-47-113t-114-48h-535q-67 0-114 48t-47 113v536q0 66 47 113t114 48h535z m-306-429q0 49-35 84t-84 34t-83-34t-35-84t35-84t83-34t84 34t35 84z m314 0q0 49-34 84t-84 34t-84-34t-34-84t34-84t84-34t84 34t34 84z" horiz-adv-x="857.1" />
<glyph glyph-name="gplus-squared" unicode="&#xe884;" d="m378-39q0-21-5-40h-212q-53 0-96 32t-58 82q14 25 39 44t56 27t59 14t60 3q18 0 27-1q4-2 17-11t19-13t17-13t18-14t15-14t15-17t12-17t10-19t5-20t2-23z m-163 196q-131-4-215-47v241q58-66 152-66q18 0 39 3q-11-34-11-48q0-37 35-83z m96 285q0-56-24-89t-78-34q-29 0-54 14t-44 38t-31 52t-20 58t-6 55q0 54 28 92t81 39q37 0 66-23t47-58t26-72t9-72z m546 51v-411q0-66-47-113t-114-48h-261q22 41 22 88q0 37-12 68t-31 52t-40 40t-41 33t-31 31t-12 33q0 20 13 38t31 34t37 36t31 52t13 73t-15 81t-42 66q-4 4-8 6t-7 5t-6 5t-5 9h75l75 36h-244q-77 0-136-21t-102-75q0 70 45 119t116 48h535q67 0 114-47t47-113v-54h-143v143h-71v-143h-143v-71h143v-143h71v143h143z" horiz-adv-x="857.1" />
<glyph glyph-name="linkedin-squared" unicode="&#xe86e;" d="m132 61h129v387h-129v-387z m138 507q-1 29-21 48t-51 19t-53-19t-21-48q0-29 20-48t52-19h0q33 0 53 19t21 48z m326-507h129v222q0 86-41 130t-108 44q-75 0-116-65h1v56h-129q2-37 0-387h129v216q0 22 4 32q8 19 25 33t41 14q65 0 65-88v-207z m261 557v-536q0-66-47-113t-114-48h-535q-67 0-114 48t-47 113v536q0 66 47 113t114 48h535q67 0 114-48t47-113z" horiz-adv-x="857.1" />
<glyph glyph-name="linkedin-2" unicode="&#xe86f;" d="m195 501v-553h-184v553h184z m12 171q0-41-29-68t-75-27h-1q-46 0-74 27t-28 68q0 41 29 68t75 27t74-27t29-68z m650-407v-317h-183v296q0 59-23 92t-71 33q-35 0-58-19t-36-48q-6-17-6-45v-309h-184q1 223 1 361t0 165l-1 27h184v-80h-1q11 18 23 31t31 29t49 24t64 9q95 0 153-63t58-186z" horiz-adv-x="857.1" />
<glyph glyph-name="tumblr-squared" unicode="&#xe883;" d="m627 64v101q-49-31-97-31q-29 0-50 12q-16 10-21 25q-6 17-6 72v165h152v101h-152v162h-92q-6-50-22-82t-44-55q-27-22-64-35v-91h70v-225q0-44 10-68q9-23 33-44q24-20 58-31q34-11 78-11q37 0 72 7q32 8 75 28z m230 554v-536q0-66-47-113t-114-48h-535q-67 0-114 48t-47 113v536q0 66 47 113t114 48h535q67 0 114-48t47-113z" horiz-adv-x="857.1" />
<glyph glyph-name="twitter-squared" unicode="&#xe864;" d="m714 510q-31-14-67-19q38 22 52 65q-37-21-75-29q-34 37-85 37q-49 0-83-34t-35-83q0-16 3-27q-72 4-135 37t-107 86q-16-28-16-59q0-64 51-98q-27 1-56 15v-1q0-42 28-75t68-40q-16-5-28-5q-7 0-22 2q12-35 42-58t67-23q-64-50-145-50q-15 0-28 1q82-52 180-52q62 0 117 20t93 53t68 76t42 91t13 94q0 10 0 15q35 25 58 61z m143 108v-536q0-66-47-113t-114-48h-535q-67 0-114 48t-47 113v536q0 66 47 113t114 48h535q67 0 114-48t47-113z" horiz-adv-x="857.1" />
<glyph glyph-name="twitter-6" unicode="&#xe865;" d="m904 622q-37-54-90-93q0-8 0-23q0-73-21-145t-64-139t-103-117t-144-82t-181-30q-151 0-276 81q19-3 43-3q126 0 224 77q-59 2-105 36t-64 89q19-2 34-2q24 0 48 6q-63 13-104 62t-41 115v2q38-21 82-23q-37 25-59 64t-22 86q0 49 25 91q68-83 164-133t208-55q-5 21-5 41q0 75 53 127t127 53q79 0 132-57q61 12 114 44q-20-64-79-100q52 6 104 28z" horiz-adv-x="928.6" />
<glyph glyph-name="youtube-1" unicode="&#xe876;" d="m542 156v-118q0-37-22-37q-13 0-25 12v168q12 12 25 12q22 0 22-37z m188-1v-25h-50v25q0 38 25 38t25-38z m-539 122h60v52h-174v-52h59v-318h55v318z m161-318h50v276h-50v-211q-17-23-32-23q-10 0-11 11q-1 2-1 20v203h-50v-218q0-28 5-41q7-21 32-21q27 0 57 34v-30z m240 83v110q0 41-5 55q-10 31-40 31q-28 0-52-30v121h-50v-370h50v27q25-31 52-31q30 0 40 31q5 15 5 56z m188 6v7h-51q0-29-1-34q-4-20-22-20q-26 0-26 38v49h100v57q0 44-15 65q-22 28-59 28q-38 0-60-28q-15-21-15-65v-96q0-44 16-65q22-29 60-29q40 0 60 30q10 15 12 30q1 5 1 33z m-339 509v117q0 39-24 39t-24-39v-117q0-39 24-39t24 39z m401-419q0-131-14-195q-8-33-33-56t-57-25q-102-12-309-12t-310 12q-32 3-57 25t-32 56q-15 62-15 195q0 131 15 195q7 33 32 56t57 26q103 11 310 11t309-11q33-4 57-26t33-56q14-62 14-195z m-557 712h57l-67-223v-151h-56v151q-8 42-34 119q-21 57-37 104h60l39-147z m207-186v-97q0-46-16-66q-21-29-59-29q-38 0-59 29q-15 21-15 66v97q0 45 15 65q21 29 59 29q38 0 59-29q16-20 16-65z m187 91v-279h-51v31q-30-35-58-35q-25 0-33 21q-4 13-4 42v220h51v-205q0-19 0-20q2-12 12-12q15 0 32 24v213h51z" horiz-adv-x="857.1" />
<glyph glyph-name="youtube-squared" unicode="&#xe826;" d="m513 123v88q0 27-16 27q-10 0-19-9v-125q9-8 19-8q16 0 16 27z m103 68h36v19q0 28-18 28t-18-28v-19z m-319 148v-39h-45v-236h-41v236h-44v39h130z m112-70v-205h-37v23q-22-25-43-25q-18 0-23 15q-4 9-4 30v162h37v-151q0-13 1-14q0-8 8-8q11 0 24 17v156h37z m141-62v-81q0-29-4-41q-7-23-30-23q-19 0-38 22v-20h-37v275h37v-89q18 22 38 22q23 0 30-24q4-11 4-41z m140-72v-5q0-16-1-24q-2-12-9-22q-15-22-44-22q-29 0-46 21q-11 15-11 48v72q0 33 11 48q16 21 44 21t44-21q12-16 12-48v-43h-74v-36q0-28 18-28q14 0 17 14q0 1 1 4t0 9v12h38z m-252 460v-87q0-29-18-29t-18 29v87q0 29 18 29t18-29z m297-398q0 99-10 145q-6 25-24 41t-43 19q-75 9-229 9q-154 0-230-9q-24-2-42-19t-24-41q-11-48-11-145q0-98 11-145q5-24 24-41t42-19q76-9 230-9t229 9q24 2 43 19t23 41q11 47 11 145z m-421 363l50 166h-41l-29-109l-29 109h-44l13-39t13-38q20-58 26-89v-112h41v112z m161-45v73q0 32-11 48q-16 21-44 21q-28 0-43-21q-12-16-12-48v-73q0-32 12-48q15-22 43-22q28 0 44 22q11 15 11 48z m101-67h38v207h-38v-158q-12-18-23-18q-8 0-9 9q0 1 0 15v152h-38v-164q0-21 4-31q6-15 23-15q21 0 43 25v-22z m281 170v-536q0-66-47-113t-114-48h-535q-67 0-114 48t-47 113v536q0 66 47 113t114 48h535q67 0 114-48t47-113z" horiz-adv-x="857.1" />
<glyph glyph-name="youtube-play" unicode="&#xe825;" d="m714 350q0 21-16 30l-286 179q-17 11-36 1q-19-10-19-31v-358q0-21 19-31q9-4 17-4q11 0 19 5l286 179q16 9 16 30z m286 0q0-54-1-84t-4-76t-13-82q-9-41-38-69t-70-32q-123-14-374-14t-374 14q-40 4-70 32t-39 69q-7 36-12 82t-4 76t-1 84t1 84t4 76t13 82q9 41 38 69t70 32q123 14 374 14t374-14q40-4 70-32t39-69q8-36 12-82t4-76t1-84z" horiz-adv-x="1000" />
<glyph glyph-name="blank" unicode="&#xe824;" d="m857 618v-536q0-66-47-113t-114-48h-535q-67 0-114 48t-47 113v536q0 66 47 113t114 48h535q67 0 114-48t47-113z" horiz-adv-x="857.1" />
<glyph glyph-name="lemon" unicode="&#xe823;" d="m785 389q0 25-4 63t-10 54q-6 17-9 25t-5 20t-3 27q0 13 3 38t3 38q0 21-6 31q-2 0-7 0q-10 0-32-2t-33-3q-34 0-98 14t-98 13q-24 0-53-6t-47-13t-50-19q-76-31-113-58q-53-41-89-106t-49-131t-14-139q0-22 7-67t7-68q0-12-6-37t-6-36t7-21t19-8q13 0 40 7t41 6q32 0 95-9t94-9q101 0 159 20q72 26 131 86t93 137t33 153z m72 1q0-92-39-183t-110-160t-157-101q-69-25-182-25q-31 0-94 8t-95 9q-13 0-40-9t-41-8q-41 0-69 31t-28 72q0 14 6 38t6 37q0 23-7 68t-7 68q0 61 10 121t31 117t56 108t83 87q44 33 130 67q108 44 176 44q34 0 98-14t97-13q10 0 32 3t32 2q45 0 66-28t20-75q0-13-2-38t-3-38q0-5 0-10t2-10t2-7t4-9t4-10q9-22 14-66t5-76z" horiz-adv-x="857.1" />
<glyph glyph-name="note" unicode="&#xe828;" d="m381 820q0-42 46-97t90-100t61-119t-39-154q-20-34-26-16q-2 6 0 16q10 18 6 56t-13 78t-43 73t-82 41l0-536q2-48-37-95t-105-71q-74-28-143-8t-89 76t20 115t116 85q86 30 158 4l0 652l80 0z" horiz-adv-x="582" />
<glyph glyph-name="user-1" unicode="&#xe886;" d="m736 128q204-72 204-122l0-106l-940 0l0 106q0 50 204 122q94 34 128 69t34 95q0 22-22 49t-32 73q-2 12-9 18t-14 8t-14 17t-9 43q0 16 5 26t9 12l4 4q-8 50-12 88q-4 54 41 112t157 58t158-58t40-112l-12-88q18-8 18-42q-2-28-9-43t-14-17t-14-8t-9-18q-8-48-31-74t-23-48q0-60 35-95t127-69z" horiz-adv-x="940" />
<glyph glyph-name="users-1" unicode="&#xe887;" d="m1000-90l-224 0l0 150q0 54-30 81t-154 89q40 30 40 84q0 16-13 33t-19 51q-2 8-14 16t-14 42q0 24 12 30q-6 34-8 60q-4 38 23 78t95 40t96-40t24-78l-8-60q12-6 12-30q-2-34-14-42t-14-16q-6-34-19-51t-13-33q0-42 21-66t77-48q112-46 130-80q6-8 9-61t5-101l0-48z m-488 262q182-78 182-124l0-138l-694 0l0 184q0 44 84 78q76 32 104 64t28 88q0 20-19 44t-25 68q-2 10-18 22t-20 56q0 14 3 23t7 13l4 2q-6 46-10 82q-4 50 33 103t127 53t127-53t33-103l-10-82q14-8 14-38q-4-44-20-56t-18-22q-6-44-25-68t-19-44q0-56 28-88t104-64z" horiz-adv-x="1000" />
<glyph glyph-name="user-add" unicode="&#xe888;" d="m620 128q180-64 180-122l0-106l-800 0l0 202q36 14 82 26q94 34 129 69t35 95q0 22-23 48t-31 74q-2 12-23 25t-25 61q0 16 5 26t9 12l4 4q-8 50-12 88q-6 54 40 112t160 58t160-58t42-112l-14-88q18-8 18-42q-2-28-9-43t-14-17t-14-8t-9-18q-10-46-33-73t-23-49q0-60 36-95t130-69z m230 272l150 0l0-100l-150 0l0-150l-100 0l0 150l-150 0l0 100l150 0l0 150l100 0l0-150z" horiz-adv-x="1000" />
<glyph glyph-name="retweet-1" unicode="&#xe85f;" d="m250 190l272 0l128-140l-448 0q-42 0-71 30t-29 70l0 302l-102 0l176 198l174-198l-100 0l0-262z m650 60l100 0l-174-200l-176 200l102 0l0 260l-274 0l-128 140l450 0q40 0 70-29t30-71l0-300z" horiz-adv-x="1000" />
<glyph glyph-name="map" unicode="&#xe89a;" d="m984 600q16-10 16-30l0-584q0-20-16-30q-8-6-16-6t-18 6l-216 136l-216-136q-18-10-34 0l-218 136l-216-136q-16-10-34 0q-16 10-16 30l0 584q0 20 16 30l234 146q18 10 34 0l216-136l218 136q16 10 32 0z m-750-450l0 506l-168-104l0-506z m234-104l0 506l-168 104l0-506z m234 104l0 506l-170-104l0-506z m232-104l0 506l-168 104l0-506z" horiz-adv-x="1000" />
<glyph glyph-name="down-open" unicode="&#xe814;" d="m564 422l-234-224q-18-18-40-18t-40 18l-234 224q-16 16-16 41t16 41q38 38 78 0l196-188l196 188q40 38 78 0q16-16 16-41t-16-41z" horiz-adv-x="580" />
<glyph glyph-name="left-open" unicode="&#xe815;" d="m242 626q14 16 39 16t41-16q38-36 0-80l-186-196l186-194q38-44 0-80q-16-16-40-16t-40 16l-226 236q-16 16-16 38q0 24 16 40q206 214 226 236z" horiz-adv-x="341" />
<glyph glyph-name="right-open" unicode="&#xe816;" d="m98 626l226-236q16-16 16-40q0-22-16-38l-226-236q-16-16-40-16t-40 16q-36 36 0 80l186 194l-186 196q-36 44 0 80q16 16 41 16t39-16z" horiz-adv-x="340" />
<glyph glyph-name="up-open" unicode="&#xe817;" d="m564 280q16-16 16-41t-16-41q-38-38-78 0l-196 188l-196-188q-40-38-78 0q-16 16-16 41t16 41l234 224q16 16 40 16t40-16z" horiz-adv-x="580" />
<glyph glyph-name="down-open-mini" unicode="&#xe818;" d="m405 470q22 26 48 0q26-22 0-48l-196-192q-22-22-48 0l-196 192q-26 26 0 48q24 24 50 0l170-156z" horiz-adv-x="466" />
<glyph glyph-name="left-open-mini" unicode="&#xe819;" d="m252 180q26-26 0-48q-26-26-48 0l-192 194q-24 24 0 50l192 194q22 26 48 0q26-22 0-48l-156-172z" horiz-adv-x="265" />
<glyph glyph-name="right-open-mini" unicode="&#xe81a;" d="m13 180l158 170l-158 172q-26 26 0 48q26 26 48 0l192-194q24-26 0-50l-192-194q-22-26-48 0q-26 22 0 48z" horiz-adv-x="265" />
<glyph glyph-name="up-open-mini" unicode="&#xe81b;" d="m62 230q-26-22-50 0q-24 24 0 50l196 190q26 26 48 0l196-190q24-26 0-50q-24-22-50 0l-170 158z" horiz-adv-x="464" />
<glyph glyph-name="down-open-big" unicode="&#xe813;" d="m63 570l370-356l372 356q22 26 48 0q26-22 0-48l-396-392q-22-22-48 0l-396 392q-26 26 0 48q24 24 50 0z" horiz-adv-x="866" />
<glyph glyph-name="left-open-big" unicode="&#xe811;" d="m452-20q26-26 0-48q-26-26-48 0l-392 394q-24 24 0 50l392 394q22 26 48 0q26-22 0-48l-358-372z" horiz-adv-x="465" />
<glyph glyph-name="right-open-big" unicode="&#xe812;" d="m13-20l358 370l-358 372q-26 26 0 48q26 26 48 0l392-394q24-26 0-50l-392-394q-22-26-48 0q-26 22 0 48z" horiz-adv-x="465" />
<glyph glyph-name="network" unicode="&#xe834;" d="m224 504q-22 0-42-10q-48 52-92 128q54 74 128 118q92-38 152-82q-6-16-6-32q0-6 4-22q-62-48-116-104q-16 4-28 4z m-98-98q0-34 20-60q-60-114-80-232q-66 106-66 236q0 110 50 206q38-62 84-112q-8-24-8-38z m336 318q-28 0-50-14q-58 42-114 70q84 30 162 30q120 0 230-62q-76-14-162-50q-26 26-66 26z m146-460q-160 24-290 112q4 20 4 30q0 24-14 52q38 44 98 90q26-20 56-20q14 0 38 8q94-108 134-240q-16-14-26-32z m128-132q38 14 54 60q58 4 108 18q-46-146-166-232q6 48 6 98q0 10-1 28t-1 28z m-150 66q-190-96-304-272q-90 36-158 110q12 144 80 274q6-2 20-2q30 0 52 14q142-98 310-124z m184 492q150-136 150-340q0-22-4-66q-64-18-130-24q-24 56-88 60q-48 146-148 264q10 20 10 42l0 10q100 42 210 54z m-136-544q14-10 32-18q2-18 2-52q0-80-14-144q-86-42-194-42q-58 0-112 12q110 160 286 244z" horiz-adv-x="920" />
<glyph glyph-name="github" unicode="&#xe88b;" d="m620 286q26 0 45-26t19-64t-19-64t-45-26q-28 0-47 26t-19 64t19 64t47 26z m226 234q74-80 74-194q0-74-17-133t-43-96t-64-65t-70-41t-73-20t-62-8t-45-1q-6 0-36-1t-50-1t-50 1t-36 1q-24 0-45 1t-62 8t-73 20t-70 41t-64 65t-43 96t-17 133q0 114 74 194q-8 4-1 80t33 140q92-10 228-104q46 12 126 12q84 0 126-12q62 42 119 68t83 30l26 6q26-64 33-140t-1-80z m-384-514q166 0 251 40t85 164q0 72-54 120q-28 26-65 32t-113 0t-104-6l-4 0q-32 0-83 4t-80 5t-63-7t-56-28q-52-46-52-120q0-124 84-164t250-40l4 0z m-160 280q26 0 45-26t19-64t-19-64t-45-26q-28 0-47 26t-19 64t19 64t47 26z" horiz-adv-x="920" />
<glyph glyph-name="github-circled" unicode="&#xe88c;" d="m480 354q16 0 42 2t41 2t32-4t29-14q26-26 26-60q0-64-43-84t-127-20t-127 20t-43 84q0 34 26 60q12 10 29 14t32 4t41-2t42-2z m-80-128q14 0 23 14t9 32q0 46-32 46t-32-46q0-18 9-32t23-14z m160 0q14 0 24 14t10 32q0 20-10 33t-24 13q-32 0-32-46q0-18 9-32t23-14z m-80 604q200 0 340-140t140-340q0-198-140-339t-340-141q-198 0-339 141t-141 339q0 200 141 340t339 140z m44-676q188 0 188 184q0 56-38 98q4 4 1 41t-17 71q-44-6-114-52q-20 6-64 6q-40 0-64-6q-30 20-59 33t-41 17l-14 2q-14-34-17-71t1-41q-38-42-38-98q0-184 188-184l88 0z" horiz-adv-x="960" />
<glyph glyph-name="flickr" unicode="&#xe867;" d="m196 150q-80 0-138 59t-58 141q0 84 57 142t139 58t139-58t57-142q0-82-58-141t-138-59z m508 0q-80 0-138 59t-58 141q0 84 57 142t139 58t139-58t57-142q0-82-58-141t-138-59z" horiz-adv-x="900" />
<glyph glyph-name="flickr-circled" unicode="&#xe866;" d="m480 830q200 0 340-140t140-340q0-198-140-339t-340-141q-198 0-339 141t-141 339q0 200 141 340t339 140z m-128-580q40 0 70 30t30 70q0 42-30 72t-70 30t-70-30t-30-72q0-40 30-70t70-30z m256 0q42 0 71 30t29 70q0 42-29 72t-71 30q-40 0-69-30t-29-72q0-40 29-70t69-30z" horiz-adv-x="960" />
<glyph glyph-name="vimeo-circled" unicode="&#xe88a;" d="m480 830q200 0 340-140t140-340q0-198-140-339t-340-141q-198 0-339 141t-141 339q0 200 141 340t339 140z m220-386q14 82-48 94q-60 14-110-40q-28-28-34-66q38 24 56-1t-2-63q-44-84-64-84q-14 0-36 94q-4 14-8 40t-8 45t-12 39t-20 29t-30 5q-26-6-60-32t-56-50l-20-24l18-24q4 4 10 8t22 10t20-2q6-8 37-113t39-121q14-28 38-43t58 1q54 36 124 120t86 178z" horiz-adv-x="960" />
<glyph glyph-name="twitter-5" unicode="&#xe85e;" d="m920 636q-36-54-94-98l0-24q0-130-60-250t-186-203t-290-83q-160 0-290 84q14-2 46-2q132 0 234 80q-62 2-110 38t-66 94q10-4 34-4q26 0 50 6q-66 14-108 66t-42 120l0 2q36-20 84-24q-84 58-84 158q0 48 26 94q154-188 390-196q-6 18-6 42q0 78 55 133t135 55q82 0 136-58q60 12 120 44q-20-66-82-104q56 8 108 30z" horiz-adv-x="920" />
<glyph glyph-name="twitter-circled-2" unicode="&#xe85d;" d="m480 830q200 0 340-140t140-340q0-198-140-339t-340-141q-198 0-339 141t-141 339q0 200 141 340t339 140z m196-392q30 22 46 48q-32-12-54-14q30 18 42 52q-30-16-60-22q-28 28-70 28q-40 0-67-28t-27-66q0-2 1-10t1-12q-120 6-194 100q-14-24-14-48q0-50 44-78q-26 0-44 12l0-2q0-34 21-60t55-32q-16-4-24-4q-12 0-18 2q20-66 88-66q-50-40-118-40l-22 0q68-42 144-42q122 0 196 83t74 187l0 12z" horiz-adv-x="960" />
<glyph glyph-name="facebook-1" unicode="&#xe84a;" d="m500 644l-142 0q-14 0-25-15t-11-37l0-102l178 0l0-148l-178 0l0-442l-170 0l0 442l-152 0l0 148l152 0l0 86q0 94 59 159t147 65l142 0l0-156z" horiz-adv-x="500" />
<glyph glyph-name="check" unicode="&#xe849;" d="m998 827c-88-98-170-200-247-304s-147-212-212-323c-5-8-10-19-18-34c-22-44-53-66-94-66c-17 0-31 3-42 8c-12 5-22 14-31 26c-8 11-15 25-22 43s-15 43-24 77c-1 2-1 4-2 7c-11 38-16 62-16 71c0 19 11 37 34 53c22 16 45 24 67 24c7 0 13-2 17-6c4-4 9-13 15-27c4-9 8-20 13-35c11-32 21-49 29-49c7 0 33 37 80 112c45 71 83 130 116 178c45 68 79 116 103 146c23 30 44 53 63 69c17 13 38 24 64 32c27 8 60 13 100 15l7-17z m-498-983c-279 0-506 227-506 506s227 506 506 506s506-227 506-506s-227-506-506-506z m0 1000c-272 0-494-221-494-494c0-272 222-494 494-494c273 0 494 222 494 494c0 273-221 494-494 494z" horiz-adv-x="1000" />
<glyph glyph-name="facebook-squared" unicode="&#xe84c;" d="m752 770q44 0 76-31t32-75l0-646q0-44-32-76t-76-32l-162 0l0 310l114 0l0 134l-114 0l0 70q0 30 28 30l86 0l0 152l-96 0q-74 0-124-54t-50-132l0-66l-104 0l0-134l104 0l0-310l-326 0q-44 0-76 32t-32 76l0 646q0 44 32 75t76 31l644 0z" horiz-adv-x="860" />
<glyph glyph-name="gplus-1" unicode="&#xe88d;" d="m48 572q0 58 25 102t56 65t69 34t56 15t26 2l230 0l0-4q0-22-78-36q-28 0-38-6q40-20 54-56t14-96q0-102-68-158q-38-38-38-54q0-18 50-64q104-90 104-178q0-140-116-194q-68-34-150-34l-4 0l-4 2q-2-2-4-2q-24 0-54 5t-75 21t-74 57t-29 103q0 60 32 101t83 57t88 22t71 6l2 0q-16 22-24 47t-8 39l2 14l-14 0q-64 0-110 30q-74 44-74 160z m370-452q-4 52-43 84t-103 32l-16 0q-64-2-114-46q-46-42-42-94t53-80t119-24q68 4 109 40t37 88z m-60 500q-30 108-122 108q-12 0-20-2q-40-12-58-62q-16-50-2-106q14-52 47-85t71-33q12 0 18 2q42 12 63 65t3 113z m388-174l150 0l0-94l-150 0l0-150l-94 0l0 150l-150 0l0 94l150 0l0 150l94 0l0-150z" horiz-adv-x="896" />
<glyph glyph-name="gplus-circled-1" unicode="&#xe88e;" d="m434 486q8-30-1-57t-31-33l-10 0q-42 0-60 60q-6 30 2 54q10 24 30 30q2 2 10 2q44 0 60-56z m46 344q200 0 340-140t140-340q0-198-140-339t-340-141q-198 0-339 141t-141 339q0 200 141 340t339 140z m-28-686q60 30 60 98q0 44-52 92q-26 22-26 32q0 12 20 26q34 34 34 80q0 58-36 78q2 2 10 3t10 1q40 4 40 16l0 4l-116 0q-12 0-33-4t-53-32t-32-76q0-56 38-80q22-16 56-16l6 0q-4-24 16-50l-2 0q-138 0-138-94q0-40 28-63t49-27t39-4l8 0q40 0 74 16z m254 208l0 48l-76 0l0 76l-48 0l0-76l-76 0l0-48l76 0l0-76l48 0l0 76l76 0z m-314-58q32 0 52-17t22-43t-19-44t-55-20q-34-4-60 11t-28 41q0 26 22 48q20 20 58 24l8 0z" horiz-adv-x="960" />
<glyph glyph-name="pinterest" unicode="&#xe891;" d="m320 190q-26-130-58-211t-96-129q-6 74-7 120t11 110t22 104t26 99t24 99q-24 52-19 116t48 106t99 20q40-16 44-59t-13-95t-32-103t-4-90t63-49q68-14 121 38t74 131t11 163t-54 128q-62 64-151 70t-163-33t-120-117t-32-170q4-22 22-52t21-47t-17-67q-146 34-140 230q4 138 105 234t233 112q164 18 290-57t144-219q26-176-66-317t-252-129q-22 2-42 9t-30 13t-31 21t-31 21z" horiz-adv-x="778" />
<glyph glyph-name="pinterest-circled" unicode="&#xe890;" d="m480 830q200 0 340-140t140-340q0-198-140-339t-340-141t-340 141t-140 339q0 200 140 340t340 140z m32-592q82-8 128 64t34 162q-10 72-74 110t-146 28q-66-8-117-56t-53-118q-4-100 70-116q10 24 9 33t-10 24t-11 27q-14 96 78 144t158-18q48-48 20-148t-98-86q-40 8-33 54t24 86t-21 60q-42 18-65-33t1-89q-4-20-21-83t-18-87t1-98q52 38 78 172q46-30 66-32z" horiz-adv-x="960" />
<glyph glyph-name="tumblr" unicode="&#xe88f;" d="m560-58q-48-26-106-40q-48-12-102-12q-58 0-110 16q-54 20-82 46q-36 32-46 64q-14 30-14 96l0 322l-100 0l0 130q54 18 92 50t62 80q24 52 30 116l130 0l0-232l216 0l0-144l-216 0l0-236q0-84 8-102q10-24 32-36q28-20 68-20q68 0 138 46l0-144z" horiz-adv-x="560" />
<glyph glyph-name="tumblr-circled" unicode="&#xe892;" d="m480 830q200 0 340-140t140-340q0-198-140-339t-340-141q-198 0-339 141t-141 339q0 200 141 340t339 140z m130-686l0 74q-36-24-70-24q-16 0-36 10q-12 8-14 18q-6 12-6 52l0 118l110 0l0 74l-110 0l0 118l-64 0q-8-42-16-60q-10-22-32-40t-46-26l0-66l50 0l0-162q0-28 8-48q6-16 24-32q14-14 40-24q32-8 56-8q28 0 52 6q28 6 54 20z" horiz-adv-x="960" />
<glyph glyph-name="linkedin-1" unicode="&#xe86d;" d="m204 698q0-40-29-68t-75-28q-44 0-72 28t-28 68q0 42 28 69t74 27t73-27t29-69z m-198-790l0 618l192 0l0-618l-192 0z m306 420q0 86-4 198l166 0l10-86l4 0q60 100 190 100q100 0 161-67t61-199l0-366l-192 0l0 342q0 134-98 134q-70 0-98-72q-6-12-6-48l0-356l-194 0l0 420z" horiz-adv-x="900" />
<glyph glyph-name="linkedin-circled-1" unicode="&#xe86c;" d="m480 830q200 0 340-140t140-340q0-198-140-339t-340-141q-198 0-339 141t-141 339q0 200 141 340t339 140z m-118-678l0 312l-96 0l0-312l96 0z m-48 352q52 0 52 48t-52 48q-22 0-37-14t-15-34q0-48 52-48z m404-352l0 184q0 66-31 101t-81 35q-66 0-96-50l-2 0l-6 42l-84 0q2-28 2-100l0-212l98 0l0 180q0 18 4 24q12 38 50 38q48 0 48-68l0-174l98 0z" horiz-adv-x="960" />
<glyph glyph-name="dribbble" unicode="&#xe893;" d="m438 480q-30 54-66 109t-56 84t-24 33q-82-40-139-112t-77-162q182 0 362 48z m50-132q8 4 14 4q-10 28-32 68q-182-56-402-56l0-14q0-150 100-262q4 8 13 21t39 50t64 69t89 66t115 54z m-270-306q-2 0-4 2l-4 4z m148 690z m354-86q-114 98-260 98q-48 0-92-12q82-108 146-228q138 52 204 140z m-260-756q-190 0-325 135t-135 325t135 325t325 135t325-135t135-325t-135-325t-325-135z m68 396q-216-74-308-242l-2-2q110-84 242-84q78 0 154 32q-24 140-84 298z m16 158q12-24 26-56q2-2 5-9t5-11q66 8 129 4t101-10t42-8q0 138-88 246l-8-10q-8-10-26-27t-42-36t-62-42t-82-41z m60-138q52-148 76-280q140 92 168 262q-8 4-39 11t-88 12t-117-5z" horiz-adv-x="920" />
<glyph glyph-name="lastfm" unicode="&#xe897;" d="m394 222l34-100q-64-52-168-52q-106 0-183 73t-77 199q0 130 80 209t188 79q112 0 167-45t91-159l36-116q48-146 202-146q120 0 120 60q0 54-78 72l-78 18q-134 34-134 152q0 88 58 126t146 38q184 0 198-146l-114-14q-8 70-90 70t-82-62q0-50 66-66l74-16q150-36 150-166q0-160-238-160q-136 0-204 53t-100 149l-36 116q-14 40-22 60t-25 43t-42 33t-61 10q-64 0-113-46t-49-142q0-80 46-130t110-50q60 0 128 56z" horiz-adv-x="1000" />
<glyph glyph-name="lastfm-circled" unicode="&#xe896;" d="m480 830q198 0 339-140t141-340q0-198-141-339t-339-141q-200 0-340 141t-140 339q0 200 140 340t340 140z m132-620q120 0 120 80q0 66-76 84l-38 8q-32 8-32 34q0 30 40 30q44 0 46-34l58 6q-6 74-100 74q-102 0-102-84q0-60 66-76l40-8q40-10 40-36q0-32-62-32q-76 0-100 74l-20 58q-18 58-45 81t-85 23q-54 0-95-40t-41-106q0-62 39-99t93-37t86 26l-18 50q-28-28-66-28q-32 0-55 25t-23 65q0 50 25 73t57 23q34 0 49-18t27-56l18-58q32-102 154-102z" horiz-adv-x="960" />
<glyph glyph-name="instagram" unicode="&#xe895;" d="m690 350q0 26-6 50l176 0l0-344q0-56-39-96t-95-40l-592 0q-56 0-95 40t-39 96l0 344l174 0q-4-32-4-50q0-106 76-183t184-77q106 0 183 77t77 183z m36 430q56 0 95-39t39-95l0-146l-218 0q-78 110-212 110q-138 0-212-110l-218 0l0 146q0 56 39 95t95 39l592 0z m64-166l0 72q0 24-24 24l-72 0q-24 0-24-24l0-72q0-8 7-16t17-8l72 0q24 0 24 24z m-200-264q0-66-47-113t-113-47t-113 47t-47 113q0 68 47 114t113 46t113-46t47-114z" horiz-adv-x="860" />
<glyph glyph-name="paypal" unicode="&#xe894;" d="m771 610l8-4q38-22 60-62q20-38 20-96q0-130-110-210q-106-80-306-80l-30 0q-16 0-32-12t-20-28l-36-156q-12-42-52-42l-106 0q-18 0-28 13t-6 29l6 24l68 0q16 0 32 13t20 29l36 156q10 40 52 40l30 0q196 0 306 80q110 82 110 210q0 56-22 96z m-580-516q-2-16-18-29t-32-13l-108 0q-18 0-27 13t-5 29l150 646q10 40 52 40l224 0q78 0 126-8q56-12 94-34q36-24 58-62q20-38 20-96q0-130-110-210q-106-80-304-80l-32 0q-16 0-32-12t-18-28z m88 374q-4-16 6-28t26-12l28 0q86 0 134 36q48 34 48 98q0 44-30 64q-32 20-94 20l-34 0q-42 0-52-40z" horiz-adv-x="859" />
<glyph glyph-name="map-1" unicode="&#xe89b;" d="m53-93q-23 0-38 16t-15 36l0 521q0 21 15 36l235 235q14 14 34 15t35-11l224-179l202 201q25 25 57 10t32-47l0-520q0-21-16-38l-234-233q-14-14-35-15t-35 11l-224 179l-201-202q-15-15-36-15z m51 178q152 150 156 152l0 378l-156-156l0-374z m215 149l202-162l0 389l-208 165l0-389q1-1 3-2t3-1z m410 7l0 374q-153-151-156-154l0-376z" horiz-adv-x="834" />
<glyph glyph-name="menu" unicode="&#xe87b;" d="m834 90q42 0 73-30t31-75q0-42-30-73t-74-31l-730 0q-44 0-74 31t-30 73q0 44 31 75t73 30l730 0z m0 364q44 0 74-31t30-73t-30-73t-74-30l-730 0q-44 0-74 30t-30 73t30 73t74 31l730 0z m0 365q44 0 74-31t30-73q0-43-31-74t-73-31l-730 0q-43 0-73 31t-31 74q0 43 30 73t74 31l730 0z" horiz-adv-x="938" />
<glyph glyph-name="brush" unicode="&#xe801;" d="m909 790q49-49 24-112q-135-339-487-548q-17-10-29-12q-16-104-95-171t-184-67q-24 0-46 4l-76 11l-12 76q-20 127 55 223q68 86 180 104q5 17 10 27q209 353 548 488q19 7 39 7q43 0 73-30z m-771-805q71 0 121 44t58 114l-54 53q-77-8-123-68t-33-142q10-1 31-1z m255 234q38 21 93 61q-84 84-85 86q-35-48-62-93z m135 92q213 165 309 405q-243-96-406-310z" horiz-adv-x="941" />
<glyph glyph-name="pipette" unicode="&#xe803;" d="m898 769q59-59 60-153t-63-146q-53-41-190-92l83-84q15-15 15-37t-15-37t-36-15q-22 0-37 15l-15 15l-273-272q-31-32-79-50q-1-2-29-11t-77-20t-91-11q-78 0-114 37q-24 23-32 64t-3 81t14 79t17 61t9 25q19 47 51 80l273 272l-16 15q-15 15-15 37t15 37t37 15t36-15l85-85q53 140 92 190q51 65 147 65q91 0 151-60z m-787-788q24-20 135 8l-126 126q-28-111-9-134z m191 26q34 12 51 30l273 272l-186 186l-273-272q-15-15-30-50z" horiz-adv-x="958" />
<glyph glyph-name="chart-pie" unicode="&#xe802;" d="m449 251l292 292q103-128 103-293q0-137-73-250q-11-18-32-20t-35 13z m-136-23l270-271q-97-72-218-72q-151 0-258 107t-107 259q0 137 90 240t223 121l0-384z m381 427l-278-279l0 394q0 21 16 35t37 10q122-23 221-92q18-12 18-33t-14-35z" horiz-adv-x="844" />
<glyph glyph-name="facebook-circled-2" unicode="&#xe84e;" d="m800 683q138-138 138-333q0-193-138-331t-331-137q-195 0-333 137q-136 136-136 331q0 197 136 333q135 136 333 136q195 0 331-136z m-384-271q0 61 39 104t98 43l72 0l0-105l-72 0q-13 0-22-9t-10-22l0-73l104 0l0-103l-104 0l0-258q117 15 205 104q108 107 108 257q0 153-108 259t-257 106q-153 0-259-106t-106-259q0-150 106-257q89-89 206-104l0 258l-103 0l0 103l103 0l0 62z" horiz-adv-x="938" />
<glyph glyph-name="facebook-2" unicode="&#xe84d;" d="m313 454l156 0l0-156l-156 0l0-364l-157 0l0 364l-156 0l0 156l156 0l0 66q0 50 16 102t43 81q58 64 145 64l109 0l0-157l-109 0q-20 0-34-13t-13-33l0-110z" horiz-adv-x="469" />
<glyph glyph-name="flickr-circled-1" unicode="&#xe869;" d="m469-119q-195 0-333 138q-136 136-136 331q0 197 136 333q135 136 333 136q195 0 331-136q138-138 138-333q0-193-138-331t-331-137z m0 834q-153 0-259-106t-106-259q0-150 106-257t259-108q150 0 257 108t108 257q0 153-108 259t-257 106z m-156-495q-54 0-92 38t-38 92t38 92t92 38t91-38t39-92t-39-92t-91-38z m0 208q-33 0-55-23t-23-55t23-55t55-22t55 22t22 55t-22 55t-55 23z m312-208q-54 0-92 38t-38 92t38 92t92 38t92-38t38-92t-38-92t-92-38z" horiz-adv-x="938" />
<glyph glyph-name="flickr-2" unicode="&#xe86a;" d="m209 142q-86 0-148 61t-61 147t61 148t148 61t147-61t60-148t-60-147t-147-61z m0 312q-44 0-75-31t-30-73t30-73t75-30t74 30t30 73t-30 73t-74 31z m469 105q86 0 146-61t61-148t-61-147t-146-61t-148 61t-61 147t61 148t148 61z" horiz-adv-x="885" />
<glyph glyph-name="linkedin-circled-2" unicode="&#xe871;" d="m366 178l-83 0l0 271l83 0l0-271z m-86 347q0 18 13 30t32 13q45 0 45-43q0-41-45-41t-45 41z m298-68q47 0 72-33t25-86l0-160l-85 0l0 151q0 60-41 60q-21 0-35-14t-13-40l0-157l-85 0l0 185q0 70-1 86l73 0l5-36q28 44 85 44z m-109-575q-194 0-331 137t-138 331t138 332t331 137t331-137t138-332t-138-331t-331-138z m0 833q-151 0-258-107t-107-258t107-258t258-107t258 107t107 258t-107 258t-258 107z" horiz-adv-x="938" />
<glyph glyph-name="linkedin-3" unicode="&#xe870;" d="m159-15l-156 0l0 521l156 0l0-521z m394 505q87 0 133-56t45-154l0-295l-156 0l0 279q0 109-76 109q-61 0-80-62l0-326l-156 0q2 469 0 521l123 0l10-103l3 0q54 87 154 87z m-553 146q0 79 81 79q80 0 80-79q0-77-80-77q-81 0-81 77z" horiz-adv-x="731" />
<glyph glyph-name="twitter-circled-1" unicode="&#xe85c;" d="m475 408q0 35 25 60t61 25t62-26q27 6 53 20q-10-30-36-47q30 4 49 14q-16-24-44-45l0-11q0-133-111-205q-56-38-131-38q-72 0-132 39q4-1 22-1q58 0 106 36q-29 1-51 18t-29 42q5-2 15-2q15 0 22 2q-28 6-48 29t-19 56q14-7 39-10q-39 28-39 71q0 20 12 43q69-85 177-89q-3 10-3 19z m-6-527q-195 0-333 138q-136 136-136 331q0 197 136 333q135 136 333 136q195 0 331-136q138-138 138-333q0-193-138-331t-331-137z m0 834q-153 0-259-106t-106-259q0-150 106-257t259-108q150 0 257 108t108 257q0 153-108 259t-257 106z" horiz-adv-x="938" />
<glyph glyph-name="twitter-4" unicode="&#xe85b;" d="m456 539q0 80 57 135t137 56q85 0 139-59q60 13 122 45q-20-67-83-106q53 8 110 31q-39-58-97-101l0-24q0-136-60-255q-60-121-190-206t-296-85q-162 0-295 86q20-2 48-2q133 0 237 81q-65 1-113 40t-66 95q13-5 35-5t50 6q-65 14-108 67t-44 125q36-20 86-24q-86 60-86 161q0 48 26 95q158-191 398-199q-7 22-7 43z" horiz-adv-x="938" />
<glyph glyph-name="mail-1" unicode="&#xe832;" d="m467 366l-449 210l0 109l893 0l0-109z m0-123l444 210l0-437l-893 0l0 438z" horiz-adv-x="928" />
<glyph glyph-name="rss-alt" unicode="&#xe807;" d="m18 15q0 112 112 112t111-112t-111-112t-112 112z m336 56q0 68-50 118t-118 50l0 112q116 0 197-82q83-85 83-198l-112 0z m-169 391l0 112q144 0 258-71t177-180q68-116 68-252l-112 0q0 112-54 201t-140 139q-89 51-197 51z m0 223l0 112q153 0 287-60t227-153t153-226t59-287l-112 0q0 130-50 242t-130 192t-192 130t-242 50z" horiz-adv-x="928" />
<glyph glyph-name="cog" unicode="&#xe806;" d="m911 295l-133-56q-8-22-12-31l55-133l-79-79l-135 53q-9-4-31-12l-55-134l-112 0l-56 133q-11 4-33 13l-132-55l-78 79l53 134q-1 3-4 9t-6 12t-4 11l-131 55l0 112l131 56l14 33l-54 132l78 79l133-54q22 9 33 13l55 132l112 0l56-132q14-5 31-13l133 55l80-79l-54-135q6-12 12-30l133-56l0-112z m-447-111q69 0 118 48t49 118t-49 119t-118 50t-119-50t-49-119t49-118t119-48z" horiz-adv-x="928" />
<glyph glyph-name="brush-1" unicode="&#xe805;" d="m464 202q0-124-87-212t-210-87q-81 0-149 40q68 39 109 108t40 151q0 61 44 105t105 44t105-44t43-105z m415 562q32-32 32-79t-33-79l-318-318q-20 55-61 97t-97 62l318 318q32 32 79 32t80-33z" horiz-adv-x="928" />
<glyph glyph-name="brush-alt" unicode="&#xe804;" d="m353 127q0-92-65-158t-158-66q-62 0-112 30q52 29 82 81t30 113q0 46 33 79t79 33t78-33t33-79z m526 637q32-32 32-79t-33-79l-422-421q-16 58-58 100t-99 57l421 423q32 32 79 32t80-33z" horiz-adv-x="928" />
<glyph glyph-name="chart-bar" unicode="&#xe889;" d="m180 516l0-538l-180 0l0 538l180 0z m250-138l0-400l-180 0l0 400l180 0z m250 344l0-744l-180 0l0 744l180 0z" horiz-adv-x="680" />
<glyph glyph-name="chart-pie-1" unicode="&#xe808;" d="m808 399l-332 0l0 335c184 0 332-147 332-331l0-4z m-437-105l333 0l0 4c0-184-149-332-333-332s-331 148-331 332s148 332 331 332l0-336z" horiz-adv-x="807" />
<glyph glyph-name="facebook" unicode="&#xe836;" d="m380 589l-70 0c-54 0-60-33-60-66l0-52l130 0l-12-158l-118 0l0-348l-159 0l0 348l-91 0l0 158l91 0l0 117c0 95 54 147 159 147l130 0l0-146z" horiz-adv-x="380" />
<glyph glyph-name="facebook-rect" unicode="&#xe835;" d="m79 730l601 0c56 0 80-24 80-79l0-601c0-53-24-79-80-79l-206 0l0 247l97 0l0 119l-97 0l0 79c0 24 5 47 45 47l52 0l0 112l-111 0c-79 0-120-40-120-112l0-126l-80 0l0-119l80 0l0-247l-261 0c-51 0-79 26-79 79l0 601c0 55 28 79 79 79z" horiz-adv-x="760" />
<glyph glyph-name="twitter" unicode="&#xe837;" d="m290 152l73 0c45 0 80-35 80-79c0-45-35-80-80-80l-79 0c-76 4-148 34-199 85c-55 52-85 124-85 202l0 348c0 44 35 79 80 79c44 0 79-35 79-79l0-116l204 0c45 0 80-35 80-80c0-44-35-79-80-79l-204 0l0-73c0-70 55-123 131-128z" horiz-adv-x="443" />
<glyph glyph-name="twitter-bird-2" unicode="&#xe860;" d="m715 659l169 0l0-21l-133-85c12-80-53-116-53-116s50-138-49-253c-115-133-240-85-260-78c-20 5-19-9-19-9c24-96 0-130-52-135c-58-5-48 87-48 87c-99-87-131-38-124-6c13 49 75 108 75 108c-181 0-221 135-221 135s88-23 148-10c62 12 126 60 148 158c20 89 117 125 117 125c0 137 111 179 176 179c106 0 126-79 126-79z m-157-53c0-28 22-50 50-50s50 22 50 50s-23 50-50 50s-50-23-50-50z" horiz-adv-x="884" />
<glyph glyph-name="twitter-rect" unicode="&#xe861;" d="m79 730l601 0c56 0 80-24 80-79l0-601c0-53-24-79-80-79l-601 0c-51 0-79 26-79 79l0 601c0 55 28 79 79 79z m431-514l-81 0c-56 4-96 41-96 95l0 52l177 0c33 0 59 27 59 59c0 34-26 60-59 60l-177 0l0 74c0 32-28 60-58 60c-34 0-59-28-59-60l0-245c0-58 20-114 62-150c38-39 90-61 147-64l85 0c33 0 59 26 59 60c0 33-26 59-59 59z" horiz-adv-x="760" />
<glyph glyph-name="youtube" unicode="&#xe862;" d="m638 349l-378 190l0-380z m-559 330l689 0c56 0 80-24 80-79l0-501c0-52-24-79-80-79l-689 0c-51 0-79 27-79 79l0 501c0 55 28 83 79 79z" horiz-adv-x="848" />
<glyph glyph-name="menu-1" unicode="&#xe87c;" d="m68 62q0-30 21-51t51-21h793q30 0 51 21t21 51t-21 51t-51 21h-793q-29 0-51-21t-21-51z m0 288q0-30 21-51t51-21h793q30 0 51 21t21 51t-21 51t-51 21h-793q-29 0-51-21t-21-51z m0 288q0-30 21-51t51-21h793q30 0 51 21t21 51t-21 51t-51 21h-793q-29 0-51-21t-21-51z" horiz-adv-x="1073.2" />
<glyph glyph-name="retweet-2" unicode="&#xe863;" d="m2 268q5 9 21 9h63v344q0 31 22 54t54 22h479l-103-154h-300v-266h63q16 0 21-9t-3-22l-143-234q-6-8-14-8q-4 0-7 2t-6 4l-1 2l-144 234q-8 13-2 22z m282-264l103 153h300v266h-64q-15 0-21 10t3 21l144 234q5 9 13 9q4 0 7-2t6-4l1-3l144-234q8-12 3-21t-22-10h-63v-343q0-32-22-54t-54-22h-478z" horiz-adv-x="924.8" />
<glyph glyph-name="twitter-1" unicode="&#xe83e;" d="m0 68q0-7 7-13q13-8 44-24q119-62 250-62q163 0 296 84q63 40 113 96t78 118t43 123t14 119v17q57 41 89 94q3 6 3 9q0 6-5 11t-11 5q-4 0-12-4q-6-2-14-5t-15-5t-8-3q13 15 26 39t14 35q0 6-5 11t-11 5q-4 0-8-3q-56-29-104-40q-59 56-141 56q-84 0-143-59t-59-141q0-15 2-24q-83 7-159 39t-138 88q-14 14-55 57q-6 6-13 6q-6 0-13-8q-12-19-20-46t-7-54q0-73 45-127l-14 7q-12 5-18 5q-8 0-14-5t-5-12q0-52 26-97t71-74l-5 1q-1 0-3 1t-3 1t-1 0q-7 0-11-5t-5-11q0 0 1-5q17-51 55-86t90-48q-84-52-187-52q-7 0-22 1q-20 1-22 1q-7 0-11-5t-5-11z" horiz-adv-x="937.5" />
<glyph glyph-name="twitter-circled" unicode="&#xe83d;" d="m0 350q0 95 37 182t100 149t150 100t182 37t182-37t149-100t100-149t37-182t-37-182t-100-150t-149-100t-182-37t-182 37t-150 100t-100 150t-37 182z m190-199q0-5 4-8q7-5 27-16q73-37 153-37q100 0 181 51q39 25 70 60t48 73t26 76t9 73v11q35 26 54 58q2 3 2 6q0 4-3 7t-7 3l-7-3q-19-7-22-8q8 10 16 25t8 21q0 3-3 6t-7 3q-2 0-5-1q-36-19-64-26q-36 35-87 35q-51 0-87-36t-36-87q0-6 1-15q-105 10-181 79q-14 13-34 35q-4 4-9 4q-5 0-7-5q-18-24-18-62q0-44 29-78q-1 0-10 3q-6 4-10 4q-5 0-8-3t-4-8q0-32 17-60t43-45h-2q-1 0-2 0q-1 1-4 1q-4 0-7-3t-3-7q0 0 1-3q10-31 34-53t55-29q-52-33-115-33q-1 0-14 1q-3 0-7 1t-6 0q-3 0-6-3t-3-7z" horiz-adv-x="937.5" />
<glyph glyph-name="facebook-4" unicode="&#xe851;" d="m0 350h97v-469h193v469h130l17 161h-146v81q0 18 2 28t8 20t19 13t35 4h81v161h-129q-112 0-161-53t-49-157v-97h-97v-161z" horiz-adv-x="437.5" />
<glyph glyph-name="facebook-circled" unicode="&#xe83a;" d="m0 350q0 95 37 182t100 149t150 100t182 37t182-37t149-100t100-149t37-182t-37-182t-100-150t-149-100t-182-37t-182 37t-150 100t-100 150t-37 182z m351 0h52v-253h105v253h70l9 87h-79v44q0 20 6 27t29 8h43v87h-70q-61 0-87-29t-26-85v-52h-52v-87z" horiz-adv-x="937.5" />
<glyph glyph-name="gplus" unicode="&#xe839;" d="m0 57q0-39 17-68q30-55 105-82q63-26 136-26t133 20t100 52t60 74t22 87q0 63-34 108q-26 36-69 68q-15 11-32 28q-34 28-34 55q0 32 45 73q15 13 37 36q19 21 32 54t12 72q0 51-22 96t-62 70h76l76 44h-246q-53 0-106-11q-78-17-131-80t-53-141q0-82 59-138t145-55q8 0 39 3q-2-6-9-24q-4-11-4-25q0-38 36-84q-37 0-84-7q-110-18-169-60q-34-25-55-64t-20-75z m104 26q0 34 16 61q27 47 94 68q58 18 120 18q9 0 28-2q1 0 16-11t20-13q14-9 36-27q1-2 9-9t13-12t8-10q2-2 3-5t4-6t5-7q6-9 10-19q7-24 7-43q0-35-15-61t-42-42q-50-30-120-30q-76 0-139 35q-33 17-53 47t-20 68z m61 563q0 57 30 94t81 38q36 0 66-22t48-60q36-74 36-145q0-59-26-92t-77-32q-28 0-55 14q-45 26-76 91q-27 57-27 114z m412-43h144v-145h72v145h144v72h-144v143h-72v-143h-144v-72z" horiz-adv-x="937.5" />
<glyph glyph-name="gplus-circled" unicode="&#xe838;" d="m0 350q0 95 37 182t100 149t150 100t182 37t182-37t149-100t100-149t37-182t-37-182t-100-150t-149-100t-182-37q-96 0-184 38h1q106 0 169 51t64 121q0 46-25 79q-20 26-51 51q-18 14-24 19q-25 21-25 42q0 25 33 54q8 8 27 26q33 36 33 93q0 38-16 72t-46 52h56l56 32h-182q-37 0-77-8q-59-13-98-59t-39-104q0-61 44-102t106-41q7 0 29 2q0-3-3-10t-3-8q-3-7-3-18q0-28 27-62q-31-1-62-5q-83-14-125-45q-22-16-36-40t-18-47q-97 126-97 286z m172-282q0 27 12 45q19 33 69 49q41 14 89 14q11 0 21-1q2-1 26-18q1-1 8-5t11-9t7-6q2-1 7-6t10-10t6-7q1-2 9-13q5-8 7-14q6-18 6-32q0-53-43-77q-37-21-89-21q-55 0-102 25q-24 13-39 35t-15 51z m46 416q0 42 22 70t59 28q27 0 49-17t36-44q26-56 26-107q0-43-19-68t-58-25q-20 0-40 11q-34 21-56 68q-19 42-19 84z m304-33h106v-106h53v106h107v53h-107v107h-53v-107h-106v-53z" horiz-adv-x="937.5" />
<glyph glyph-name="linkedin" unicode="&#xe83c;" d="m0 57v586q0 72 52 124t124 51h585q73 0 125-51t51-124v-586q0-73-51-124t-125-52h-585q-73 0-124 52t-52 124z m156 0q0-8 6-14t14-6h117q8 0 14 6t5 14v390q0 8-5 14t-14 6h-117q-8 0-14-6t-6-14v-390z m0 529q0-31 22-53t53-22q33 0 54 22q22 22 22 53t-22 54t-54 22t-53-22t-22-54z m195-529q0-8 10-14t18-6h111q7 0 12 6t6 14v213q0 85 69 85q29 0 38-13t10-45v-240q0-8 7-14t16-6h113q8 0 14 6t6 14v265q0 77-44 117t-125 41q-55 0-96-28q-8-5-8-7q0 22-21 22h-108q-10 0-19-5t-9-12v-393z" horiz-adv-x="937.5" />
<glyph glyph-name="linkedin-circled" unicode="&#xe83b;" d="m0 350q0 95 37 182t100 149t150 100t182 37t182-37t149-100t100-149t37-182t-37-182t-100-150t-149-100t-182-37t-182 37t-150 100t-100 150t-37 182z m227-151q0-38 27-64t64-26h302q37 0 64 26t27 64v302q0 38-27 64t-64 26h-302q-38 0-64-26t-27-64v-302z m81 0v201q0 4 3 7t7 3h60q4 0 7-3t3-7v-201q0-4-3-7t-7-3h-60q-4 0-7 3t-3 7z m0 273q0 16 11 28t28 11q16 0 27-11t12-28t-12-27q-11-12-27-12q-16 0-28 11t-11 28z m101-273v202q0 4 4 7t9 2h56q11 0 11-11q0 2 4 4q22 14 50 14q41 0 64-21t23-60v-137q0-4-3-7t-7-3h-59q-4 0-8 3t-3 7v123q0 17-6 24t-19 7q-36 0-36-44v-110q0-4-3-7t-6-3h-58q-4 0-9 3t-4 7z" horiz-adv-x="937.5" />
<glyph glyph-name="facebook-5" unicode="&#xe852;" d="m124-150v469h-124v169h124v145c0 113 73 217 242 217c69 0 119-7 119-7l-4-157s-51 0-108 0c-60 0-70-28-70-74v-124h183l-8-169h-175v-469h-179" horiz-adv-x="486" />
<glyph glyph-name="facebook-rect-1" unicode="&#xe853;" d="m183 850c-102 0-183-81-183-183l0-634c0-102 81-183 183-183l344 0l0 391l-104 0l0 141l104 0l0 120c0 94 61 181 201 181c57 0 100-5 100-5l-4-132s-43 1-90 1c-50 0-58-24-58-62l0-103l152 0l-6-141l-146 0l0-391l141 0c102 0 183 81 183 183l0 634c0 102-81 183-183 183l-634 0z" horiz-adv-x="1000" />
<glyph glyph-name="twitter-2" unicode="&#xe857;" d="m749-25c0-34-13-64-37-88c-25-25-54-37-89-37l-248 0c-103 0-192 36-265 110c-73 73-110 161-110 264l0 501c0 35 12 65 37 89c24 24 54 36 89 36c34 0 64-12 88-37c25-24 37-54 37-88l0-181l353 0c32 0 60-12 83-35c22-22 34-49 34-81c0-32-12-59-34-82c-23-23-51-34-82-34l-354 0l0-88c0-34 12-64 36-88c24-24 54-36 88-36l248 0c35 0 64-12 89-37c24-24 37-54 37-88" horiz-adv-x="749" />
<glyph glyph-name="twitter-bird" unicode="&#xe856;" d="m1231 732q-51-77-126-131q1-14 1-32q0-102-30-203q-29-102-90-195q-61-92-145-164q-84-72-201-114q-118-43-253-43q-210 0-387 113q31-3 60-3q176 0 314 108q-82 2-147 51q-64 49-89 125q24-5 48-5q34 0 66 9q-87 17-145 87q-57 69-57 160l0 4q53-30 114-32q-52 34-82 90q-30 55-30 120q0 68 34 127q95-117 230-186q135-70 290-78q-6 28-6 58q0 104 74 178q74 74 178 74q110 0 185-80q85 17 160 62q-29-91-111-140q76 9 145 39z" horiz-adv-x="1231" />
<glyph glyph-name="linkedin-4" unicode="&#xe872;" d="m238-150l0 675l-225 0l0-675l225 0z m-113 767c79 0 127 52 127 116c-1 67-48 117-125 117c-77 0-127-50-127-117c0-64 49-116 124-116l1 0z m237-767l224 0l0 377c0 20 1 40 7 55c17 40 53 82 115 82c82 0 114-62 114-153l0-361l224 0l0 387c0 207-110 304-258 304c-121 0-174-68-204-114l2 0l0 98l-224 0c3-64 0-675 0-675z" horiz-adv-x="1046" />
<glyph glyph-name="linkedin-rect" unicode="&#xe873;" d="m196 850c-108 0-196-88-196-196l0-608c0-108 88-196 196-196l608 0c107 0 196 88 196 196l0 608c0 108-89 196-196 196l-608 0z m49-165c52 0 84-34 85-79c0-43-33-78-86-78l-1 0c-50 0-83 35-83 78c0 45 34 79 85 79z m445-208c100 0 174-65 174-205l0-260l-151 0l0 243c0 61-22 102-76 102c-42 0-67-28-78-55c-4-10-5-23-5-37l0-253l-151 0s2 411 0 454l151 0l0-64c20 31 56 75 136 75z m-521-11l151 0l0-454l-151 0l0 454z" horiz-adv-x="1000" />
<glyph glyph-name="location" unicode="&#xe899;" d="m0 473q0 156 110 267t267 110t267-110t110-267q0-123-53-193l-324-430l-324 430q-53 70-53 193z m219 0q0-66 46-112t112-46t112 46t46 112t-46 112t-112 46t-112-46t-46-112z" horiz-adv-x="754" />
<glyph glyph-name="location-circled" unicode="&#xe898;" d="m0 350q0 207 147 354t353 146t354-146t146-354t-146-354t-354-146t-353 146t-147 354z m250 82q0-82 35-129l215-283l215 283q35 47 35 129q0 104-73 176t-177 72t-177-72t-73-176z m145-1q0 44 31 74t74 31t74-31t31-74t-31-74t-74-30t-74 30t-31 74z" horiz-adv-x="1000" />
<glyph glyph-name="book" unicode="&#xe878;" d="m0 147l0 543q0 31 14 53q29 45 102 77t116 9l471-242l0-590l-86-47l0 590l-420 224q-29 10-65-9t-58-47l469-270l0-529l-86-47z" horiz-adv-x="703" />
<glyph glyph-name="facebook-6" unicode="&#xe854;" d="m0-150l0 1000l1000 0l0-1000l-1000 0z m471 469l92 0l0-352l132 0l0 352l129 0l6 127l-135 0l0 94q0 31 12 43t41 13l80 0l2 117q-59 6-88 6l-23 0q-31 0-57-10q-99-39-99-154l0-109l-92 0l0-127z" horiz-adv-x="1000" />
<glyph glyph-name="flickr-3" unicode="&#xe86b;" d="m0-150l0 1000l1000 0l0-1000l-1000 0z m107 500q0-78 55-134t133-55t134 55t55 134t-55 133t-134 55t-133-55t-55-133z m409 0q0-78 55-134t134-55t133 55t55 134t-55 133t-133 55t-134-55t-55-133z" horiz-adv-x="1000" />
<glyph glyph-name="linkedin-5" unicode="&#xe874;" d="m0-150l0 1000l1000 0l0-1000l-1000 0z m164 729q2-34 25-54t53-23l2 0q35 2 59 24t23 53q-2 33-25 53t-55 21q-35 0-58-22t-24-52z m8-569l144 0l0 434l-144 0l0-434z m225 0l144 0l0 242q0 24 4 36q27 52 74 52q72-2 72-97l0-233l145 0l0 248q-2 98-47 149q-47 47-119 49q-53-2-86-26q-21-15-43-47l0 61l-144 0q1-18 1-70q0-90-1-364z" horiz-adv-x="1000" />
<glyph glyph-name="twitter-3" unicode="&#xe858;" d="m0 26q162-19 305 88q-67-2-117 39t-77 105q18-3 43-1q34 1 49 5q-99 34-139 108q-23 51-23 103q57-29 92-27q-80 68-90 146q-6 63 25 135q114-125 239-180q93-39 185-39q-12 94 26 159q45 70 128 93q55 14 106-3t86-55q60 6 133 49q-30-86-92-118q62 10 121 36q-10-20-37-53t-68-57q1-10 1-17q4-110-42-233q-81-201-243-302q-160-90-382-69q-141 16-229 88z" horiz-adv-x="1000" />
<glyph glyph-name="globe" unicode="&#xe833;" d="m0 366q0 201 142 342t342 142t343-142t142-342t-142-343t-343-142t-342 142t-142 343z m63-16q7-166 125-283q52 37 109 60q-43 106-47 223l-187 0z m0 31l187 0q4 104 37 196q-62 25-117 68q-102-113-107-264z m128 287q51-39 108-62q43 101 117 176q-131-22-225-114z m20-623q88-76 205-95q-64 64-105 148q-53-19-100-53z m70 305q4-111 45-213q69 22 143 26l0 187l-188 0z m0 31l188 0l0 157q-78 3-153 29q-31-88-35-186z m47 215q69-23 141-27l0 218l-2 0q-90-76-139-191z m12-486q49-100 127-166l2 0l0 187q-69-4-129-21z m160-166l2 0q78 66 127 166q-61 17-129 21l0-187z m0 219q74-4 143-26q41 102 45 213l-188 0l0-187z m0 218l188 0q-4 98-36 186q-74-26-152-29l0-157z m0 188q72 4 141 27q-49 115-139 191l-2 0l0-218z m53-619q117 19 205 95q-47 34-100 53q-41-84-105-148z m0 832q74-75 117-176q57 23 107 62q-93 92-224 114z m119-655q57-23 109-60q117 117 125 283l-187 0q-4-117-47-223z m10 450q33-92 37-196l187 0q-6 151-107 264q-55-43-117-68z" horiz-adv-x="969" />
<glyph glyph-name="user" unicode="&#xe846;" d="m1070-88q0-21-2-63h-1067q0 10 0 31t-1 32q0 30 1 37q12 49 64 85t112 53t125 47t97 65q17 22 17 38q0 22-11 73q-4 21-10 37t-16 33t-16 31q-15 35-33 132q-6 38-6 75q0 105 54 168t157 63t158-63t53-168q0-31-7-75q-14-89-32-132q-6-14-15-31t-16-33t-11-37q-11-51-11-73q0-18 17-38q31-36 97-65t125-47t111-53t64-85q2-8 2-37z" horiz-adv-x="1070" />
<glyph glyph-name="retweet" unicode="&#xe859;" d="m1120 369h240l-300-320l-300 320h240v240h-400l-117 120h636z m-360-200l117-120h-636l-1 360h-240l300 320l300-320h-240v-240h400z" horiz-adv-x="1360" />
<glyph glyph-name="cog-2" unicode="&#xe845;" d="m1000 421v-142l-185-26q-10-27-21-50l120-157l-102-100l-159 118q-20-10-51-21l-30-194h-143l-27 197q-21 7-43 18l-161-119l-101 100l121 160q-11 21-19 46l-199 28v142l199 28q7 21 19 45l-120 159l101 100l160-119q15 8 47 20l28 195h143l28-195q22-7 48-19l158 117l102-100l-119-156q13-27 20-48z m-348-72q0 60-43 102t-103 42t-102-42t-43-102t43-102t102-42t103 42t43 102z" horiz-adv-x="1000" />
<glyph glyph-name="left-open-1" unicode="&#xe844;" d="m308 349l346-346l-154-154l-500 500l500 500l154-154z" horiz-adv-x="654" />
<glyph glyph-name="right-open-1" unicode="&#xe843;" d="m154 849l500-500l-500-500l-154 154l346 346l-346 346z" horiz-adv-x="654" />
<glyph glyph-name="down-circle" unicode="&#xe842;" d="m1000 349q0-136-67-251t-182-182t-251-67t-251 67t-182 182t-67 251t67 251t182 182t251 67t251-67t182-182t67-251z m-500-186l232 233l-71 71l-161-161l-161 161l-71-71z" horiz-adv-x="1000" />
<glyph glyph-name="left-circle" unicode="&#xe841;" d="m1000 349q0-136-67-251t-182-182t-251-67t-251 67t-182 182t-67 251t67 251t182 182t251 67t251-67t182-182t67-251z m-453-232l71 71l-161 161l161 161l-71 71l-233-232z" horiz-adv-x="1000" />
<glyph glyph-name="right-circle" unicode="&#xe840;" d="m1000 349q0-136-67-251t-182-182t-251-67t-251 67t-182 182t-67 251t67 251t182 182t251 67t251-67t182-182t67-251z m-547-232l233 232l-233 232l-71-71l161-161l-161-161z" horiz-adv-x="1000" />
<glyph glyph-name="up-circle" unicode="&#xe83f;" d="m1000 349q0-136-67-251t-182-182t-251-67t-251 67t-182 182t-67 251t67 251t182 182t251 67t251-67t182-182t67-251z m-339-118l71 71l-232 233l-232-233l71-71l161 161z" horiz-adv-x="1000" />
<glyph glyph-name="facebook-rect-2" unicode="&#xe855;" d="m1000 761v-824q0-36-26-62t-62-26h-824q-36 0-62 26t-26 62v824q0 36 26 62t62 26h824q36 0 62-26t26-62z m-187-160l20 118q-43 15-143 15q-79 0-123-58q-26-34-26-119v-78h-79v-115h79v-400h149v400h118l9 115h-127v90q0 42 59 42q31 0 64-10z" horiz-adv-x="1000" />
<glyph glyph-name="twitter-bird-1" unicode="&#xe85a;" d="m1003 349q-41-46-114-46h-6q-37-152-177-244t-305-92q-121 0-225 53t-176 151q75-72 181-72q113 0 191 83q-6-1-12-1l-36 8q-24 12-24 35q0 27 41 45q-10-1-19-1q-29 0-54 12q-33 16-51 51q22 25 69 28q-98 24-112 102q27 8 53 8h8q-37 20-62 52t-24 69l1 8q155-59 257-116q30-17 76-63q32 87 68 151t89 98q-1-16-15-31q33 32 78 38q-3-23-53-41q7 2 26 10t33 11t25 4q15 0 15-11q0-8-16-16t-43-15t-28-9q10 1 19 1q69 0 123-52q60-60 76-143q18-6 36-6q50 0 83 19q-13-30-43-47t-67-19q34-15 83-15q16 0 31 3z" horiz-adv-x="1003" />
<glyph glyph-name="linkedin-rect-1" unicode="&#xe875;" d="m1000 761v-824q0-36-26-62t-62-26h-824q-36 0-62 26t-26 62v824q0 36 26 62t62 26h824q36 0 62-26t26-62z m-332-712h129v247q0 89-41 135t-107 46q-47 0-79-21t-49-47h-2l-6 59h-111q3-114 3-134v-285h128v241q0 21 4 33q20 49 66 49q65 0 65-91v-232z m-354 582q-19 18-49 18t-49-18t-19-47t19-46t47-19q32 0 51 18q18 18 18 44q0 31-18 50z m-114-582h128v419h-128v-419z" horiz-adv-x="1000" />
<glyph glyph-name="facebook-circled-1" unicode="&#xe84b;" d="m480 830q200 0 340-140t140-340q0-198-140-339t-340-141t-340 141t-140 339q0 200 140 340t340 140z m114-330l0 78l-72 0q-44 0-74-33t-30-81l0-44l-76 0l0-74l76 0l0-222l86 0l0 222l90 0l0 74l-90 0l0 52q0 28 18 28l72 0z" horiz-adv-x="960" />
</font>
</defs>
</svg>